SoC_I2C/i2c_verilog/simulation/i2c_TB.vcd
$date
	Fri Jul 26 09:06:33 2019
$end
$version
	Icarus Verilog
$end
$timescale
	10ps
$end
$scope module i2c_TB $end
$scope module uut $end
$var wire 1 ! I2C_clk $end
$var wire 1 " I2C_rst $end
$var wire 8 # command [7:0] $end
$var wire 8 $ control [7:0] $end
$var wire 16 % prescale [15:0] $end
$var wire 1 & rst_1 $end
$var wire 1 ' rst_i $end
$var wire 1 ( scl_pad_i $end
$var wire 1 ) scl_pad_o $end
$var wire 1 * sda_pad_i $end
$var wire 1 + sda_pad_o $end
$var wire 8 , transmit [7:0] $end
$var wire 1 - wr $end
$var wire 1 . sto $end
$var wire 8 / status [7:0] $end
$var wire 1 0 sta $end
$var wire 1 1 sda_padoen_o $end
$var wire 1 2 sda $end
$var wire 1 3 scl_padoen_o $end
$var wire 1 4 scl $end
$var wire 8 5 receive [7:0] $end
$var wire 1 6 rd $end
$var wire 1 7 irxack $end
$var wire 1 8 ien $end
$var wire 1 9 iack $end
$var wire 1 : i2c_busy $end
$var wire 1 ; i2c_al $end
$var wire 1 < done $end
$var wire 1 = core_en $end
$var wire 1 > cnt_done $end
$var wire 1 ? ack $end
$var wire 1 @ TIP $end
$var reg 1 A I2C_intrp $end
$var reg 1 B al $end
$var reg 8 C cr [7:0] $end
$var reg 8 D ctr [7:0] $end
$var reg 1 E irq_flag $end
$var reg 16 F prer [15:0] $end
$var reg 1 G rxack $end
$var reg 1 H tip $end
$var reg 8 I txr [7:0] $end
$scope module byte_controller $end
$var wire 1 ? ack_in $end
$var wire 1 ! clk $end
$var wire 16 J clk_cnt [15:0] $end
$var wire 1 > cnt_done $end
$var wire 8 K din [7:0] $end
$var wire 8 L dout [7:0] $end
$var wire 1 = ena $end
$var wire 1 M go $end
$var wire 1 ' nReset $end
$var wire 1 6 read $end
$var wire 1 " rst $end
$var wire 1 ( scl_i $end
$var wire 1 ) scl_o $end
$var wire 1 * sda_i $end
$var wire 1 + sda_o $end
$var wire 1 0 start $end
$var wire 1 . stop $end
$var wire 1 - write $end
$var wire 1 1 sda_oen $end
$var wire 1 3 scl_oen $end
$var wire 1 : i2c_busy $end
$var wire 1 ; i2c_al $end
$var wire 1 N core_rxd $end
$var wire 1 O core_ack $end
$var reg 1 7 ack_out $end
$var reg 5 P c_state [4:0] $end
$var reg 1 < cmd_ack $end
$var reg 4 Q core_cmd [3:0] $end
$var reg 1 R core_txd $end
$var reg 3 S dcnt [2:0] $end
$var reg 1 T ld $end
$var reg 1 U shift $end
$var reg 8 V sr [7:0] $end
$scope module bit_controller $end
$var wire 1 ! clk $end
$var wire 16 W clk_cnt [15:0] $end
$var wire 4 X cmd [3:0] $end
$var wire 1 R din $end
$var wire 1 = ena $end
$var wire 1 ' nReset $end
$var wire 1 " rst $end
$var wire 1 ( scl_i $end
$var wire 1 ) scl_o $end
$var wire 1 Y scl_sync $end
$var wire 1 * sda_i $end
$var wire 1 + sda_o $end
$var reg 1 ; al $end
$var reg 1 : busy $end
$var reg 2 Z cSCL [1:0] $end
$var reg 2 [ cSDA [1:0] $end
$var reg 18 \ c_state [17:0] $end
$var reg 1 ] clk_en $end
$var reg 1 O cmd_ack $end
$var reg 1 ^ cmd_stop $end
$var reg 16 _ cnt [15:0] $end
$var reg 1 ` dSCL $end
$var reg 1 a dSDA $end
$var reg 1 N dout $end
$var reg 1 b dscl_oen $end
$var reg 3 c fSCL [2:0] $end
$var reg 3 d fSDA [2:0] $end
$var reg 14 e filter_cnt [13:0] $end
$var reg 1 f sSCL $end
$var reg 1 g sSDA $end
$var reg 1 3 scl_oen $end
$var reg 1 h sda_chk $end
$var reg 1 1 sda_oen $end
$var reg 1 i slave_wait $end
$var reg 1 j sta_condition $end
$var reg 1 k sto_condition $end
$upscope $end
$upscope $end
$upscope $end
$upscope $end
$enddefinitions $end
#0
$dumpvars
xk
xj
0i
xh
xg
xf
b0 e
b111 d
b111 c
xb
xa
x`
bx _
x^
x]
bx \
bx [
bx Z
xY
bx X
b0xxxxxxxx W
bx V
xU
xT
bx S
xR
bx Q
bx P
xO
xN
xM
bx L
bx K
b0xxxxxxxx J
bx I
xH
xG
b0xxxxxxxx F
xE
bx D
bx C
xB
xA
x@
x?
x>
x=
x<
x;
x:
x9
x8
x7
x6
bx 5
x4
x3
x2
x1
x0
bx000xx /
x.
x-
bx ,
0+
x*
0)
x(
0'
0&
b0xxxxxxxx %
bx $
bx #
x"
1!
$end
#100
0Y
z*
z2
z(
z4
1>
1]
b0 _
b0 [
b0 Z
1a
1`
1g
1f
0k
0j
bx0x000xx /
0:
0^
0;
0h
11
13
0O
b0 \
b0 5
b0 L
b0 V
b0 S
07
b0 P
0<
0T
0U
0R
b0 Q
b0 X
0!
#200
1!
#300
0@
0H
b0x0000x /
0G
1b
0!
#400
1!
#500
0!
#600
1!
#700
0!
#800
1!
#900
0!
#1000
1'
1!
1"
1&
#1100
0M
00
0.
06
0-
0?
09
0=
08
b0xxxxxxxx _
0A
0E
b0 /
0B
b0 C
b0 I
b0 K
b0 D
b1111111111111111 F
b1111111111111111 J
b1111111111111111 W
0!
#1200
1!
#1300
b1111111111111111 _
0!
#1400
1!
#1500
0!
#1600
1!
#1700
0!
#1800
1!
#1900
0!
#2000
x=
x8
b0z [
b0z Z
b110 d
b110 c
bx I
bx K
bx D
b10 F
b10 J
b10 W
1!
b0 #
b10 %
0"
#2100
0!
#2200
1=
08
b100 d
b100 c
bz [
bz Z
b10000000 D
1!
b10000000 $
#2300
0]
b1111111111111110 _
0!
#2400
1M
10
1-
b0z d
b0z c
b10100110 I
b10100110 K
b10010000 C
1!
b10010000 #
b10100110 ,
#2500
1Y
b1111111111111101 _
0g
0f
0!
#2600
b0zz d
b0zz c
1!
#2700
0Y
1T
b1 Q
b1 X
b1 P
0a
0`
1]
b10 _
0!
#2800
bz d
bz c
1!
#2900
0>
0]
b1 _
xg
xf
b1 \
b10100110 5
b10100110 L
b10100110 V
b111 S
0T
0!
#3000
1!
#3100
xY
1@
1R
xk
xa
x`
b0 _
b10 /
1H
0!
#3200
1!
#3300
1]
b10 _
xj
x;
0!
#3400
1!
#3500
b10 \
x:
0]
b1 _
xE
b0xx0001x /
xB
0!
#3600
1!
#3700
b0 _
0!
#3800
1!
#3900
1]
b10 _
0!
#4000
1!
#4100
0]
b1 _
b100 \
0!
#4200
1!
#4300
b0 _
0!
#4400
1!
#4500
1]
b10 _
0!
#4600
1!
#4700
0*
02
01
b1000 \
0]
b1 _
0!
#4800
bz0 [
1!
#4900
b0 _
0!
#5000
b0 [
1!
#5100
1]
b10 _
0!
#5200
bz0 d
1!
#5300
0]
b1 _
b10000 \
0!
#5400
bz00 d
1!
#5500
b0 _
0!
#5600
b0 d
1!
#5700
1]
b10 _
0g
0!
#5800
1!
#5900
0Y
0(
04
03
1O
b0 \
0k
0a
0]
b1 _
0!
#6000
bz0 Z
1!
#6100
b0 _
0j
0;
0O
1T
b100 Q
b100 X
b100 P
0b
0!
#6200
b0 Z
1!
#6300
0T
1]
b10 _
b0x00001x /
0B
0!
#6400
bz0 c
1!
#6500
0]
b1 _
b10000000000000 \
0!
#6600
bz00 c
1!
#6700
b0 _
0!
#6800
b0 c
1!
#6900
1]
b10 _
0f
0!
#7000
1!
#7100
z*
z2
11
b100000000000000 \
0`
0]
b1 _
0!
#7200
b0z [
1!
#7300
b0 _
0!
#7400
bz [
1!
#7500
1]
b10 _
0!
#7600
b0z d
1!
#7700
z(
z4
0]
b1 _
13
b1000000000000000 \
0!
#7800
b0zz d
b0z Z
1i
1!
#7900
b0 _
1b
0!
#8000
bz Z
bz d
1!
#8100
1]
b10 _
xg
0!
#8200
b0z c
1!
#8300
1h
b10000000000000000 \
xa
0]
0!
#8400
b0zz c
1!
#8500
x;
0!
#8600
bz c
1!
#8700
xf
b0xx0001x /
xB
0!
#8800
xi
1!
#8900
xY
x`
xk
xj
0!
#9000
1!
#9100
b1 _
0!
#9200
1!
#9300
b0 _
0!
#9400
1!
#9500
1]
b10 _
0!
#9600
1!
#9700
0Y
0(
04
0]
b1 _
0h
03
1O
b0 \
0!
#9800
bz0 Z
1!
#9900
1U
0O
0;
b0 _
0b
0!
#10000
b0 Z
1!
#10100
1]
b10 _
b100110x 5
b100110x L
b100110x V
b110 S
0U
b0x00001x /
0B
0!
#10200
bz0 c
1!
#10300
0R
b10000000000000 \
0]
b1 _
0!
#10400
bz00 c
1!
#10500
b0 _
x;
0!
#10600
b0 c
1!
#10700
0f
1]
b10 _
b0xx0001x /
xB
0!
#10800
1!
#10900
0*
02
0]
b1 _
0`
0k
0j
01
b100000000000000 \
0!
#11000
bz0 [
1!
#11100
0;
b0 _
0!
#11200
b0 [
1!
#11300
1]
b10 _
b0x00001x /
0B
0!
#11400
bz0 d
1!
#11500
z(
z4
13
b1000000000000000 \
0]
b1 _
0!
#11600
1i
b0z Z
bz00 d
1!
#11700
b0 _
1b
0!
#11800
b0 d
bz Z
1!
#11900
0g
1]
b10 _
0!
#12000
b0z c
1!
#12100
0]
0a
1h
b10000000000000000 \
0!
#12200
b0zz c
1!
#12300
0!
#12400
bz c
1!
#12500
xf
0!
#12600
xi
1!
#12700
xY
x`
0!
#12800
1!
#12900
b1 _
0!
#13000
1!
#13100
b0 _
0!
#13200
1!
#13300
1]
b10 _
0!
#13400
1!
#13500
0Y
0(
04
0h
03
1O
b0 \
0]
b1 _
0!
#13600
bz0 Z
1!
#13700
b0 _
0O
1U
0b
0!
#13800
b0 Z
1!
#13900
0U
b101 S
b100110xx 5
b100110xx L
b100110xx V
1]
b10 _
0!
#14000
bz0 c
1!
#14100
0]
b1 _
b10000000000000 \
1R
0!
#14200
bz00 c
1!
#14300
b0 _
0!
#14400
b0 c
1!
#14500
1]
b10 _
0f
0!
#14600
1!
#14700
z*
z2
11
b100000000000000 \
0`
0]
b1 _
0!
#14800
b0z [
1!
#14900
b0 _
0!
#15000
bz [
1!
#15100
1]
b10 _
0!
#15200
b0z d
1!
#15300
z(
z4
0]
b1 _
13
b1000000000000000 \
0!
#15400
b0zz d
b0z Z
1i
1!
#15500
b0 _
1b
0!
#15600
bz Z
bz d
1!
#15700
1]
b10 _
xg
0!
#15800
b0z c
1!
#15900
1h
b10000000000000000 \
xa
0]
0!
#16000
b0zz c
1!
#16100
x;
0!
#16200
bz c
1!
#16300
xf
b0xx0001x /
xB
0!
#16400
xi
1!
#16500
xY
x`
xk
xj
0!
#16600
1!
#16700
b1 _
0!
#16800
1!
#16900
b0 _
0!
#17000
1!
#17100
1]
b10 _
0!
#17200
1!
#17300
0Y
0(
04
0]
b1 _
0h
03
1O
b0 \
0!
#17400
bz0 Z
1!
#17500
1U
0O
0;
b0 _
0b
0!
#17600
b0 Z
1!
#17700
1]
b10 _
b110xxx 5
b110xxx L
b110xxx V
b100 S
0U
b0x00001x /
0B
0!
#17800
bz0 c
1!
#17900
0R
b10000000000000 \
0]
b1 _
0!
#18000
bz00 c
1!
#18100
b0 _
x;
0!
#18200
b0 c
1!
#18300
0f
1]
b10 _
b0xx0001x /
xB
0!
#18400
1!
#18500
0*
02
0]
b1 _
0`
0k
0j
01
b100000000000000 \
0!
#18600
bz0 [
1!
#18700
0;
b0 _
0!
#18800
b0 [
1!
#18900
1]
b10 _
b0x00001x /
0B
0!
#19000
bz0 d
1!
#19100
z(
z4
13
b1000000000000000 \
0]
b1 _
0!
#19200
1i
b0z Z
bz00 d
1!
#19300
b0 _
1b
0!
#19400
b0 d
bz Z
1!
#19500
0g
1]
b10 _
0!
#19600
b0z c
1!
#19700
0]
0a
1h
b10000000000000000 \
0!
#19800
b0zz c
1!
#19900
0!
#20000
bz c
1!
#20100
xf
0!
#20200
xi
1!
#20300
xY
x`
0!
#20400
1!
#20500
b1 _
0!
#20600
1!
#20700
b0 _
0!
#20800
1!
#20900
1]
b10 _
0!
#21000
1!
#21100
0Y
0(
04
0h
03
1O
b0 \
0]
b1 _
0!
#21200
bz0 Z
1!
#21300
b0 _
0O
1U
0b
0!
#21400
b0 Z
1!
#21500
0U
b11 S
b110xxxx 5
b110xxxx L
b110xxxx V
1]
b10 _
0!
#21600
bz0 c
1!
#21700
0]
b1 _
b10000000000000 \
0!
#21800
bz00 c
1!
#21900
b0 _
0!
#22000
b0 c
1!
#22100
1]
b10 _
0f
0!
#22200
1!
#22300
b100000000000000 \
0`
0]
b1 _
0!
#22400
1!
#22500
b0 _
0!
#22600
1!
#22700
1]
b10 _
0!
#22800
1!
#22900
z(
z4
0]
b1 _
13
b1000000000000000 \
0!
#23000
b0z Z
1i
1!
#23100
b0 _
1b
0!
#23200
bz Z
1!
#23300
1]
b10 _
0!
#23400
b0z c
1!
#23500
1h
b10000000000000000 \
0]
0!
#23600
b0zz c
1!
#23700
0!
#23800
bz c
1!
#23900
xf
0!
#24000
xi
1!
#24100
xY
x`
0!
#24200
1!
#24300
b1 _
0!
#24400
1!
#24500
b0 _
0!
#24600
1!
#24700
1]
b10 _
0!
#24800
1!
#24900
0Y
0(
04
0]
b1 _
0h
03
1O
b0 \
0!
#25000
bz0 Z
1!
#25100
1U
0O
b0 _
0b
0!
#25200
b0 Z
1!
#25300
1]
b10 _
b110xxxxx 5
b110xxxxx L
b110xxxxx V
b10 S
0U
0!
#25400
bz0 c
1!
#25500
1R
b10000000000000 \
0]
b1 _
0!
#25600
bz00 c
1!
#25700
b0 _
0!
#25800
b0 c
1!
#25900
0f
1]
b10 _
0!
#26000
1!
#26100
z*
z2
0]
b1 _
0`
11
b100000000000000 \
0!
#26200
b0z [
1!
#26300
b0 _
0!
#26400
bz [
1!
#26500
1]
b10 _
0!
#26600
b0z d
1!
#26700
z(
z4
13
b1000000000000000 \
0]
b1 _
0!
#26800
1i
b0z Z
b0zz d
1!
#26900
b0 _
1b
0!
#27000
bz d
bz Z
1!
#27100
xg
1]
b10 _
0!
#27200
b0z c
1!
#27300
0]
xa
1h
b10000000000000000 \
0!
#27400
b0zz c
1!
#27500
x;
0!
#27600
bz c
1!
#27700
xf
b0xx0001x /
xB
0!
#27800
xi
1!
#27900
xY
xk
xj
x`
0!
#28000
1!
#28100
b1 _
0!
#28200
1!
#28300
b0 _
0!
#28400
1!
#28500
1]
b10 _
0!
#28600
1!
#28700
0Y
0(
04
0h
03
1O
b0 \
0]
b1 _
0!
#28800
bz0 Z
1!
#28900
b0 _
0;
0O
1U
0b
0!
#29000
b0 Z
1!
#29100
0U
b1 S
b10xxxxxx 5
b10xxxxxx L
b10xxxxxx V
1]
b10 _
b0x00001x /
0B
0!
#29200
bz0 c
1!
#29300
0]
b1 _
b10000000000000 \
0!
#29400
bz00 c
1!
#29500
x;
b0 _
0!
#29600
b0 c
1!
#29700
1]
b10 _
0f
b0xx0001x /
xB
0!
#29800
1!
#29900
b100000000000000 \
0k
0j
0`
0]
b1 _
0!
#30000
1!
#30100
b0 _
0;
0!
#30200
1!
#30300
1]
b10 _
b0x00001x /
0B
0!
#30400
1!
#30500
z(
z4
0]
b1 _
13
b1000000000000000 \
0!
#30600
b0z Z
1i
1!
#30700
b0 _
1b
0!
#30800
bz Z
1!
#30900
1]
b10 _
0!
#31000
b0z c
1!
#31100
1h
b10000000000000000 \
0]
0!
#31200
b0zz c
1!
#31300
x;
0!
#31400
bz c
1!
#31500
xf
b0xx0001x /
xB
0!
#31600
xi
1!
#31700
xY
x`
xk
xj
0!
#31800
1!
#31900
b1 _
0!
#32000
1!
#32100
b0 _
0!
#32200
1!
#32300
1]
b10 _
0!
#32400
1!
#32500
0Y
0(
04
0]
b1 _
0h
03
1O
b0 \
0!
#32600
bz0 Z
1!
#32700
1U
0O
0;
b0 _
0b
0!
#32800
b0 Z
1!
#32900
1>
1]
b10 _
b0xxxxxxx 5
b0xxxxxxx L
b0xxxxxxx V
b0 S
0U
b0x00001x /
0B
0!
#33000
bz0 c
1!
#33100
0@
0R
b10000000000000 \
0]
b1 _
b0x00000x /
0H
0!
#33200
bz00 c
1!
#33300
b0 _
x;
0!
#33400
b0 c
1!
#33500
0f
1]
b10 _
b0xx0000x /
xB
0!
#33600
1!
#33700
0*
02
0]
b1 _
0`
0k
0j
01
b100000000000000 \
0!
#33800
bz0 [
1!
#33900
0;
b0 _
0!
#34000
b0 [
1!
#34100
1]
b10 _
b0x00000x /
0B
0!
#34200
bz0 d
1!
#34300
z(
z4
13
b1000000000000000 \
0]
b1 _
0!
#34400
1i
b0z Z
bz00 d
1!
#34500
b0 _
1b
0!
#34600
b0 d
bz Z
1!
#34700
0g
1]
b10 _
0!
#34800
b0z c
1!
#34900
0]
0a
1h
b10000000000000000 \
0!
#35000
b0zz c
1!
#35100
0!
#35200
bz c
1!
#35300
xf
0!
#35400
xi
1!
#35500
xY
x`
0!
#35600
1!
#35700
b1 _
0!
#35800
1!
#35900
b0 _
0!
#36000
1!
#36100
1]
b10 _
0!
#36200
1!
#36300
0Y
0(
04
0h
03
1O
b0 \
0]
b1 _
0!
#36400
bz0 Z
1!
#36500
b0 _
0O
b1000 Q
b1000 X
b1000 P
0b
0!
#36600
b0 Z
1!
#36700
1]
b10 _
0!
#36800
bz0 c
1!
#36900
0]
b1 _
b1000000000 \
0!
#37000
bz00 c
1!
#37100
b0 _
0!
#37200
b0 c
1!
#37300
1]
b10 _
0f
0!
#37400
1!
#37500
z*
z2
11
b10000000000 \
0`
0]
b1 _
0!
#37600
b0z [
1!
#37700
b0 _
0!
#37800
bz [
1!
#37900
1]
b10 _
0!
#38000
b0z d
1!
#38100
z(
z4
0]
b1 _
13
b100000000000 \
0!
#38200
b0zz d
b0z Z
1i
1!
#38300
b0 _
1b
0!
#38400
bz Z
bz d
1!
#38500
1]
b10 _
xg
0!
#38600
b0z c
1!
#38700
b1000000000000 \
xa
0]
0!
#38800
b0zz c
1!
#38900
0!
#39000
bz c
1!
#39100
xf
0!
#39200
xi
1!
#39300
xY
x`
xk
xj
0!
#39400
1!
#39500
x;
b1 _
0!
#39600
1!
#39700
b0 _
b0xx0000x /
xB
0!
#39800
1!
#39900
1]
b10 _
0!
#40000
1!
#40100
0Y
0(
04
0]
b1 _
03
1O
b0 \
0!
#40200
bz0 Z
1!
#40300
0M
1R
x7
1<
b0 Q
b0 X
b0 P
0O
0;
b0 _
0b
0!
#40400
b0 Z
1!
#40500
0M
00
0-
1]
b10 _
0<
0R
b0 C
1E
xG
bx000001 /
0B
0!
#40600
1M
10
1-
bz0 c
b10010000 C
1!
#40700
0]
b1 _
0!
#40800
bz00 c
1!
#40900
b0 _
1T
b1 Q
b1 X
b1 P
0!
#41000
b0 c
1!
#41100
0>
0T
b111 S
b10100110 5
b10100110 L
b10100110 V
0f
1]
b10 _
0!
#41200
1!
#41300
1@
0]
b1 _
0`
0k
0j
b1 \
1R
bx000011 /
1H
0!
#41400
1!
#41500
b0 _
0!
#41600
1!
#41700
1]
b10 _
0!
#41800
1!
#41900
b10 \
0]
b1 _
0!
#42000
1!
#42100
b0 _
0!
#42200
1!
#42300
1]
b10 _
0!
#42400
1!
#42500
z(
z4
0]
b1 _
13
b100 \
0!
#42600
b0z Z
1i
1!
#42700
b0 _
1b
0!
#42800
bz Z
1!
#42900
1]
b10 _
0!
#43000
b0z c
1!
#43100
0*
02
01
b1000 \
0]
0!
#43200
bz0 [
b0zz c
1!
#43300
0!
#43400
bz c
b0 [
1!
#43500
xf
0!
#43600
xi
bz0 d
1!
#43700
xY
x`
xk
xj
0!
#43800
bz00 d
1!
#43900
x;
b1 _
0!
#44000
b0 d
1!
#44100
b0 _
0g
bx00011 /
xB
0!
#44200
1!
#44300
0k
0a
1]
b10 _
0!
#44400
1!
#44500
0]
b1 _
0j
0;
b10000 \
0!
#44600
1!
#44700
b0 _
bx000011 /
0B
0!
#44800
1!
#44900
1]
b10 _
0!
#45000
1!
#45100
0Y
0(
04
03
1O
b0 \
0]
b1 _
0!
#45200
bz0 Z
1!
#45300
b0 _
0O
1T
b100 Q
b100 X
b100 P
0b
0!
#45400
b0 Z
1!
#45500
0T
1]
b10 _
0!
#45600
bz0 c
1!
#45700
0]
b1 _
b10000000000000 \
0!
#45800
bz00 c
1!
#45900
b0 _
0!
#46000
b0 c
1!
#46100
1]
b10 _
0f
0!
#46200
1!
#46300
z*
z2
11
b100000000000000 \
0`
0]
b1 _
0!
#46400
b0z [
1!
#46500
b0 _
0!
#46600
bz [
1!
#46700
1]
b10 _
0!
#46800
b0z d
1!
#46900
z(
z4
0]
b1 _
13
b1000000000000000 \
0!
#47000
b0zz d
b0z Z
1i
1!
#47100
b0 _
1b
0!
#47200
bz Z
bz d
1!
#47300
1]
b10 _
xg
0!
#47400
b0z c
1!
#47500
1h
b10000000000000000 \
xa
0]
0!
#47600
b0zz c
1!
#47700
x;
0!
#47800
bz c
1!
#47900
xf
bx00011 /
xB
0!
#48000
xi
1!
#48100
xY
x`
xk
xj
0!
#48200
1!
#48300
b1 _
0!
#48400
1!
#48500
b0 _
0!
#48600
1!
#48700
1]
b10 _
0!
#48800
1!
#48900
0Y
0(
04
0]
b1 _
0h
03
1O
b0 \
0!
#49000
bz0 Z
1!
#49100
1U
0O
0;
b0 _
0b
0!
#49200
b0 Z
1!
#49300
1]
b10 _
b100110x 5
b100110x L
b100110x V
b110 S
0U
bx000011 /
0B
0!
#49400
bz0 c
1!
#49500
0R
b10000000000000 \
0]
b1 _
0!
#49600
bz00 c
1!
#49700
b0 _
x;
0!
#49800
b0 c
1!
#49900
0f
1]
b10 _
bx00011 /
xB
0!
#50000
1!
#50100
0*
02
0]
b1 _
0`
0k
0j
01
b100000000000000 \
0!
#50200
bz0 [
1!
#50300
0;
b0 _
0!
#50400
b0 [
1!
#50500
1]
b10 _
bx000011 /
0B
0!
#50600
bz0 d
1!
#50700
z(
z4
13
b1000000000000000 \
0]
b1 _
0!
#50800
1i
b0z Z
bz00 d
1!
#50900
b0 _
1b
0!
#51000
b0 d
bz Z
1!
#51100
0g
1]
b10 _
0!
#51200
b0z c
1!
#51300
0]
0a
1h
b10000000000000000 \
0!
#51400
b0zz c
1!
#51500
0!
#51600
bz c
1!
#51700
xf
0!
#51800
xi
1!
#51900
xY
x`
0!
#52000
1!
#52100
b1 _
0!
#52200
1!
#52300
b0 _
0!
#52400
1!
#52500
1]
b10 _
0!
#52600
1!
#52700
0Y
0(
04
0h
03
1O
b0 \
0]
b1 _
0!
#52800
bz0 Z
1!
#52900
b0 _
0O
1U
0b
0!
#53000
b0 Z
1!
#53100
0U
b101 S
b100110xx 5
b100110xx L
b100110xx V
1]
b10 _
0!
#53200
bz0 c
1!
#53300
0]
b1 _
b10000000000000 \
1R
0!
#53400
bz00 c
1!
#53500
b0 _
0!
#53600
b0 c
1!
#53700
1]
b10 _
0f
0!
#53800
1!
#53900
z*
z2
11
b100000000000000 \
0`
0]
b1 _
0!
#54000
b0z [
1!
#54100
b0 _
0!
#54200
bz [
1!
#54300
1]
b10 _
0!
#54400
b0z d
1!
#54500
z(
z4
0]
b1 _
13
b1000000000000000 \
0!
#54600
b0zz d
b0z Z
1i
1!
#54700
b0 _
1b
0!
#54800
bz Z
bz d
1!
#54900
1]
b10 _
xg
0!
#55000
b0z c
1!
#55100
1h
b10000000000000000 \
xa
0]
0!
#55200
b0zz c
1!
#55300
x;
0!
#55400
bz c
1!
#55500
xf
bx00011 /
xB
0!
#55600
xi
1!
#55700
xY
x`
xk
xj
0!
#55800
1!
#55900
b1 _
0!
#56000
1!
#56100
b0 _
0!
#56200
1!
#56300
1]
b10 _
0!
#56400
1!
#56500
0Y
0(
04
0]
b1 _
0h
03
1O
b0 \
0!
#56600
bz0 Z
1!
#56700
1U
0O
0;
b0 _
0b
0!
#56800
b0 Z
1!
#56900
1]
b10 _
b110xxx 5
b110xxx L
b110xxx V
b100 S
0U
bx000011 /
0B
0!
#57000
bz0 c
1!
#57100
0R
b10000000000000 \
0]
b1 _
0!
#57200
bz00 c
1!
#57300
b0 _
x;
0!
#57400
b0 c
1!
#57500
0f
1]
b10 _
bx00011 /
xB
0!
#57600
1!
#57700
0*
02
0]
b1 _
0`
0k
0j
01
b100000000000000 \
0!
#57800
bz0 [
1!
#57900
0;
b0 _
0!
#58000
b0 [
1!
#58100
1]
b10 _
bx000011 /
0B
0!
#58200
bz0 d
1!
#58300
z(
z4
13
b1000000000000000 \
0]
b1 _
0!
#58400
1i
b0z Z
bz00 d
1!
#58500
b0 _
1b
0!
#58600
b0 d
bz Z
1!
#58700
0g
1]
b10 _
0!
#58800
b0z c
1!
#58900
0]
0a
1h
b10000000000000000 \
0!
#59000
b0zz c
1!
#59100
0!
#59200
bz c
1!
#59300
xf
0!
#59400
xi
1!
#59500
xY
x`
0!
#59600
1!
#59700
b1 _
0!
#59800
1!
#59900
b0 _
0!
#60000
1!
#60100
1]
b10 _
0!
#60200
1!
#60300
0Y
0(
04
0h
03
1O
b0 \
0]
b1 _
0!
#60400
bz0 Z
1!
#60500
b0 _
0O
1U
0b
0!
#60600
b0 Z
1!
#60700
0U
b11 S
b110xxxx 5
b110xxxx L
b110xxxx V
1]
b10 _
0!
#60800
bz0 c
1!
#60900
0]
b1 _
b10000000000000 \
0!
#61000
bz00 c
1!
#61100
b0 _
0!
#61200
b0 c
1!
#61300
1]
b10 _
0f
0!
#61400
1!
#61500
b100000000000000 \
0`
0]
b1 _
0!
#61600
1!
#61700
b0 _
0!
#61800
1!
#61900
1]
b10 _
0!
#62000
1!
#62100
z(
z4
0]
b1 _
13
b1000000000000000 \
0!
#62200
b0z Z
1i
1!
#62300
b0 _
1b
0!
#62400
bz Z
1!
#62500
1]
b10 _
0!
#62600
b0z c
1!
#62700
1h
b10000000000000000 \
0]
0!
#62800
b0zz c
1!
#62900
0!
#63000
bz c
1!
#63100
xf
0!
#63200
xi
1!
#63300
xY
x`
0!
#63400
1!
#63500
b1 _
0!
#63600
1!
#63700
b0 _
0!
#63800
1!
#63900
1]
b10 _
0!
#64000
1!
#64100
0Y
0(
04
0]
b1 _
0h
03
1O
b0 \
0!
#64200
bz0 Z
1!
#64300
1U
0O
b0 _
0b
0!
#64400
b0 Z
1!
#64500
1]
b10 _
b110xxxxx 5
b110xxxxx L
b110xxxxx V
b10 S
0U
0!
#64600
bz0 c
1!
#64700
1R
b10000000000000 \
0]
b1 _
0!
#64800
bz00 c
1!
#64900
b0 _
0!
#65000
b0 c
1!
#65100
0f
1]
b10 _
0!
#65200
1!
#65300
z*
z2
0]
b1 _
0`
11
b100000000000000 \
0!
#65400
b0z [
1!
#65500
b0 _
0!
#65600
bz [
1!
#65700
1]
b10 _
0!
#65800
b0z d
1!
#65900
z(
z4
13
b1000000000000000 \
0]
b1 _
0!
#66000
1i
b0z Z
b0zz d
1!
#66100
b0 _
1b
0!
#66200
bz d
bz Z
1!
#66300
xg
1]
b10 _
0!
#66400
b0z c
1!
#66500
0]
xa
1h
b10000000000000000 \
0!
#66600
b0zz c
1!
#66700
x;
0!
#66800
bz c
1!
#66900
xf
bx00011 /
xB
0!
#67000
xi
1!
#67100
xY
xk
xj
x`
0!
#67200
1!
#67300
b1 _
0!
#67400
1!
#67500
b0 _
0!
#67600
1!
#67700
1]
b10 _
0!
#67800
1!
#67900
0Y
0(
04
0h
03
1O
b0 \
0]
b1 _
0!
#68000
bz0 Z
1!
#68100
b0 _
0;
0O
1U
0b
0!
#68200
b0 Z
1!
#68300
0U
b1 S
b10xxxxxx 5
b10xxxxxx L
b10xxxxxx V
1]
b10 _
bx000011 /
0B
0!
#68400
bz0 c
1!
#68500
0]
b1 _
b10000000000000 \
0!
#68600
bz00 c
1!
#68700
x;
b0 _
0!
#68800
b0 c
1!
#68900
1]
b10 _
0f
bx00011 /
xB
0!
#69000
1!
#69100
b100000000000000 \
0k
0j
0`
0]
b1 _
0!
#69200
1!
#69300
b0 _
0;
0!
#69400
1!
#69500
1]
b10 _
bx000011 /
0B
0!
#69600
1!
#69700
z(
z4
0]
b1 _
13
b1000000000000000 \
0!
#69800
b0z Z
1i
1!
#69900
b0 _
1b
0!
#70000
bz Z
1!
#70100
1]
b10 _
0!
#70200
b0z c
1!
#70300
1h
b10000000000000000 \
0]
0!
#70400
b0zz c
1!
#70500
x;
0!
#70600
bz c
1!
#70700
xf
bx00011 /
xB
0!
#70800
xi
1!
#70900
xY
x`
xk
xj
0!
#71000
1!
#71100
b1 _
0!
#71200
1!
#71300
b0 _
0!
#71400
1!
#71500
1]
b10 _
0!
#71600
1!
#71700
0Y
0(
04
0]
b1 _
0h
03
1O
b0 \
0!
#71800
bz0 Z
1!
#71900
1U
0O
0;
b0 _
0b
0!
#72000
b0 Z
1!
#72100
1>
1]
b10 _
b0xxxxxxx 5
b0xxxxxxx L
b0xxxxxxx V
b0 S
0U
bx000011 /
0B
0!
#72200
bz0 c
1!
#72300
0@
0R
b10000000000000 \
0]
b1 _
bx000001 /
0H
0!
#72400
bz00 c
1!
#72500
b0 _
x;
0!
#72600
b0 c
1!
#72700
0f
1]
b10 _
bx00001 /
xB
0!
#72800
1!
#72900
0*
02
0]
b1 _
0`
0k
0j
01
b100000000000000 \
0!
#73000
bz0 [
1!
#73100
0;
b0 _
0!
#73200
b0 [
1!
#73300
1]
b10 _
bx000001 /
0B
0!
#73400
bz0 d
1!
#73500
z(
z4
13
b1000000000000000 \
0]
b1 _
0!
#73600
1i
b0z Z
bz00 d
1!
#73700
b0 _
1b
0!
#73800
b0 d
bz Z
1!
#73900
0g
1]
b10 _
0!
#74000
b0z c
1!
#74100
0]
0a
1h
b10000000000000000 \
0!
#74200
b0zz c
1!
#74300
0!
#74400
bz c
1!
#74500
xf
0!
#74600
xi
1!
#74700
xY
x`
0!
#74800
1!
#74900
b1 _
0!
#75000
1!
#75100
b0 _
0!
#75200
1!
#75300
1]
b10 _
0!
